Script started on Sat 12 Sep 2015 04:21:57 EET
0xdf39a8 
0xdf63f0 
TheoryFiles/orderXY.ththeory  is ls
TheoryFiles/orderXY.th(9)  : error 10 : Missing token, at offset 13
    near [Index: 0 (Start: 0-Stop: 0) ='<missing DECIMAL_LITERAL>', type<5> Line: 9 LinePos:13]
     : Missing DECIMAL_LITERAL 
Parsing Complete
generating vocab
SPCHK: formula 0: (<= xi xe).
SPCHK: formula 1: (= xi xe).
SPCHK: formula 2: (<= xi yi).
SPCHK: formula 3: (= xi yi).
SPCHK: formula 4: (<= xi ye).
SPCHK: formula 5: (= xi ye).
SPCHK: formula 6: (<= xe yi).
SPCHK: formula 7: (= xe yi).
SPCHK: formula 8: (<= xe ye).
SPCHK: formula 9: (= xe ye).
SPCHK: formula 10: (<= ye yi).
SPCHK: formula 11: (= yi ye).
12
name : TheoryFiles/orderXY.thSPCHK: building SMT formulae from vocab...
(benchmark SMT: extrafuns( (xi Int) (xe Int) (yi Int) (ye Int)) :formula (<= xi xe) :formula ( not ( (<= xi xe)) )  :formula (= xi xe) :formula ( not ( (= xi xe)) )  :formula (<= xi yi) :formula ( not ( (<= xi yi)) )  :formula (= xi yi) :formula ( not ( (= xi yi)) )  :formula (<= xi ye) :formula ( not ( (<= xi ye)) )  :formula (= xi ye) :formula ( not ( (= xi ye)) )  :formula (<= xe yi) :formula ( not ( (<= xe yi)) )  :formula (= xe yi) :formula ( not ( (= xe yi)) )  :formula (<= xe ye) :formula ( not ( (<= xe ye)) )  :formula (= xe ye) :formula ( not ( (= xe ye)) )  :formula (<= ye yi) :formula ( not ( (<= ye yi)) )  :formula (= yi ye) :formula ( not ( (= yi ye)) ) )
SPCHK: parsing SMT formulae...
SPCHK: made 5 declarations as follows.
SPCHK:   0; NAME:xe; DCL:(define xe Int); AST:e17978
SPCHK:   1; NAME:yi; DCL:(define yi Int); AST:e17998
SPCHK:   2; NAME:ye; DCL:(define ye Int); AST:e179b8
SPCHK:   4; NAME:xi; DCL:(define xi Int); AST:e17958
SPCHK: asserting 12 retractable formulas and their negations...
SPCHK:   formula 0: (<= xi xe)
SPCHK:   formula 1: (= xi xe)
SPCHK:   formula 2: (<= xi yi)
SPCHK:   formula 3: (= xi yi)
SPCHK:   formula 4: (<= xi ye)
SPCHK:   formula 5: (= xi ye)
SPCHK:   formula 6: (<= xe yi)
SPCHK:   formula 7: (= xe yi)
SPCHK:   formula 8: (<= xe ye)
SPCHK:   formula 9: (= xe ye)
SPCHK:   formula 10: (<= ye yi)
SPCHK:   formula 11: (= yi ye)
TheoryFiles/orderXY.thSPCHK: enumerating vocab evaluations using recursive traversal...
SPCHK: checking choice...[1 1 1 1 1 1 1 1 1 1 1 1 ]
SPCHK: Calling SMT Solver. This may take time..
SPCHK: Adding unsat core to eliminated patterns...[- - - - - - - - - - - - ]
SPCHK: Adding unsat core to eliminated patterns...[- - - - - - - - - - - - ]
SPCHK: choice is satisfiable. 
       Is the satisfying assignment below a good model for your property?
       Notice that a specification accepts a don't care assignment. (this notice will be issued only twice).
  xe = 0:int
  xi = 0:int
  ye = 0:int
  yi = 0:int
SPCHK: Answer by 'Y' to accept and 'N' to reject the assignment. 'M' to view more details from the solver about the model. 
USER > y
SPCHK: Adding vocab choice to the specification.
yes choice being added [1 1 1 1 1 1 1 1 1 1 1 1 ]
debug 6
debug 6
debug 7
SPCHK: checking choice...[1 1 1 1 1 1 1 1 1 1 1 0 ]
SPCHK: Calling SMT Solver. This may take time..
SPCHK: Adding unsat core to eliminated patterns...[- - - - - - - - - - - - ]
SPCHK: Adding unsat core to eliminated patterns...[- 1 - 1 - - - - - 1 - 0 ]
SPCHK: choice is not satisfiable. 
SPCHK: Adding unsat core to eliminated patterns...[- 1 - 1 - - - - - 1 - 0 ]
SPCHK: Adding unsat core to eliminated patterns...[- 1 - 1 - - - - - 1 - 0 ]
SPCHK: Adding unsat core to eliminated patterns...[- 1 - 1 - - - - - 1 - 0 ]
SPCHK: checking choice...[1 1 1 1 1 1 1 1 1 1 0 1 ]
SPCHK: Calling SMT Solver. This may take time..
SPCHK: Adding unsat core to eliminated patterns...[- - - - - - - - - - - - ]
SPCHK: Adding unsat core to eliminated patterns...[- - - - - - - - - - 0 1 ]
SPCHK: choice is not satisfiable. 
SPCHK: Adding unsat core to eliminated patterns...[- - - - - - - - - - 0 1 ]
SPCHK: Adding unsat core to eliminated patterns...[- - - - - - - - - - 0 1 ]
SPCHK: Adding unsat core to eliminated patterns...[- - - - - - - - - - 0 1 ]
SPCHK: Ignore: subtree satisfies an eliminated pattern.[1 1 1 1 1 1 1 1 1 1 0 0 ]
SPCHK: checking choice...[1 1 1 1 1 1 1 1 1 0 1 1 ]
SPCHK: Calling SMT Solver. This may take time..
SPCHK: Adding unsat core to eliminated patterns...[- - - - - - - - - - - - ]
SPCHK: Adding unsat core to eliminated patterns...[- 1 - - - 1 - - - 0 - - ]
SPCHK: choice is not satisfiable. 
SPCHK: Adding unsat core to eliminated patterns...[- 1 - - - 1 - - - 0 - - ]
SPCHK: Adding unsat core to eliminated patterns...[- 1 - - - 1 - - - 0 - - ]
SPCHK: Adding unsat core to eliminated patterns...[- 1 - - - 1 - - - 0 - - ]
SPCHK: Ignore: subtree satisfies an eliminated pattern.[1 1 1 1 1 1 1 1 1 0 1 0 ]
SPCHK: Ignore: subtree satisfies an eliminated pattern.[1 1 1 1 1 1 1 1 1 0 0 - ]
SPCHK: checking choice...[1 1 1 1 1 1 1 1 0 1 1 1 ]
SPCHK: Calling SMT Solver. This may take time..
SPCHK: Adding unsat core to eliminated patterns...[- - - - - - - - - - - - ]
SPCHK: Adding unsat core to eliminated patterns...[- - - - - - - - 0 1 - - ]
SPCHK: choice is not satisfiable. 
SPCHK: Adding unsat core to eliminated patterns...[- - - - - - - - 0 1 - - ]
SPCHK: Adding unsat core to eliminated patterns...[- - - - - - - - 0 1 - - ]
SPCHK: Adding unsat core to eliminated patterns...[- - - - - - - - 0 1 - - ]
SPCHK: Ignore: subtree satisfies an eliminated pattern.[1 1 1 1 1 1 1 1 0 1 1 0 ]
SPCHK: Ignore: subtree satisfies an eliminated pattern.[1 1 1 1 1 1 1 1 0 1 0 - ]
SPCHK: Ignore: subtree satisfies an eliminated pattern.[1 1 1 1 1 1 1 1 0 0 - - ]
SPCHK: checking choice...[1 1 1 1 1 1 1 0 1 1 1 1 ]
SPCHK: Calling SMT Solver. This may take time..
SPCHK: Adding unsat core to eliminated patterns...[- - - - - - - - - - - - ]
SPCHK: Adding unsat core to eliminated patterns...[- 1 - 1 - - - 0 - - - - ]
SPCHK: choice is not satisfiable. 
SPCHK: Adding unsat core to eliminated patterns...[- 1 - 1 - - - 0 - - - - ]
SPCHK: Adding unsat core to eliminated patterns...[- 1 - 1 - - - 0 - - - - ]
SPCHK: Adding unsat core to eliminated patterns...[- 1 - 1 - - - 0 - - - - ]
SPCHK: Ignore: subtree satisfies an eliminated pattern.[1 1 1 1 1 1 1 0 1 1 1 0 ]
SPCHK: Ignore: subtree satisfies an eliminated pattern.[1 1 1 1 1 1 1 0 1 1 0 - ]
SPCHK: Ignore: subtree satisfies an eliminated pattern.[1 1 1 1 1 1 1 0 1 0 - - ]
SPCHK: Ignore: subtree satisfies an eliminated pattern.[1 1 1 1 1 1 1 0 0 - - - ]
SPCHK: checking choice...[1 1 1 1 1 1 0 1 1 1 1 1 ]
SPCHK: Calling SMT Solver. This may take time..
SPCHK: Adding unsat core to eliminated patterns...[- - - - - - - - - - - - ]
SPCHK: Adding unsat core to eliminated patterns...[- - - - - - 0 1 - - - - ]
SPCHK: choice is not satisfiable. 
SPCHK: Adding unsat core to eliminated patterns...[- - - - - - 0 1 - - - - ]
SPCHK: Adding unsat core to eliminated patterns...[- - - - - - 0 1 - - - - ]
SPCHK: Adding unsat core to eliminated patterns...[- - - - - - 0 1 - - - - ]
SPCHK: Ignore: subtree satisfies an eliminated pattern.[1 1 1 1 1 1 0 1 1 1 1 0 ]
SPCHK: Ignore: subtree satisfies an eliminated pattern.[1 1 1 1 1 1 0 1 1 1 0 - ]
SPCHK: Ignore: subtree satisfies an eliminated pattern.[1 1 1 1 1 1 0 1 1 0 - - ]
SPCHK: Ignore: subtree satisfies an eliminated pattern.[1 1 1 1 1 1 0 1 0 - - - ]
SPCHK: Ignore: subtree satisfies an eliminated pattern.[1 1 1 1 1 1 0 0 - - - - ]
SPCHK: checking choice...[1 1 1 1 1 0 1 1 1 1 1 1 ]
SPCHK: Calling SMT Solver. This may take time..
SPCHK: Adding unsat core to eliminated patterns...[- - - - - - - - - - - - ]
SPCHK: Adding unsat core to eliminated patterns...[- 1 - - - 0 - - - 1 - - ]
SPCHK: choice is not satisfiable. 
SPCHK: Adding unsat core to eliminated patterns...[- 1 - - - 0 - - - 1 - - ]
SPCHK: Adding unsat core to eliminated patterns...[- 1 - - - 0 - - - 1 - - ]
SPCHK: Adding unsat core to eliminated patterns...[- 1 - - - 0 - - - 1 - - ]
SPCHK: Ignore: subtree satisfies an eliminated pattern.[1 1 1 1 1 0 1 1 1 1 1 0 ]
SPCHK: Ignore: subtree satisfies an eliminated pattern.[1 1 1 1 1 0 1 1 1 1 0 - ]
SPCHK: checking choice...[1 1 1 1 1 0 1 1 1 0 1 1 ]
SPCHK: Calling SMT Solver. This may take time..
SPCHK: Adding unsat core to eliminated patterns...[- - - - - - - - - - - - ]
SPCHK: Adding unsat core to eliminated patterns...[- 1 - 1 - - - - - 0 - 1 ]
SPCHK: choice is not satisfiable. 
SPCHK: Adding unsat core to eliminated patterns...[- 1 - 1 - - - - - 0 - 1 ]
SPCHK: Adding unsat core to eliminated patterns...[- 1 - 1 - - - - - 0 - 1 ]
SPCHK: Adding unsat core to eliminated patterns...[- 1 - 1 - - - - - 0 - 1 ]
SPCHK: checking choice...[1 1 1 1 1 0 1 1 1 0 1 0 ]
SPCHK: Calling SMT Solver. This may take time..
SPCHK: Adding unsat core to eliminated patterns...[- - - - - - - - - - - - ]
SPCHK: Adding unsat core to eliminated patterns...[- - - 1 1 - - - - - 1 0 ]
SPCHK: choice is not satisfiable. 
SPCHK: Adding unsat core to eliminated patterns...[- - - 1 1 - - - - - 1 0 ]
SPCHK: Adding unsat core to eliminated patterns...[- - - 1 1 - - - - - 1 0 ]
SPCHK: Adding unsat core to eliminated patterns...[- - - 1 1 - - - - - 1 0 ]
SPCHK: Ignore: subtree satisfies an eliminated pattern.[1 1 1 1 1 0 1 1 1 0 0 1 ]
SPCHK: checking choice...[1 1 1 1 1 0 1 1 1 0 0 0 ]
SPCHK: Calling SMT Solver. This may take time..
SPCHK: Adding unsat core to eliminated patterns...[- - - - - - - - - - - - ]
SPCHK: Adding unsat core to eliminated patterns...[- - - - - - - - - - - - ]
SPCHK: choice is satisfiable. 
       Is the satisfying assignment below a good model for your property?
       Notice that a specification accepts a don't care assignment. (this notice will be issued only twice).
  xe = 0:int
  xi = 0:int
  ye = 1:int
  yi = 0:int
SPCHK: Answer by 'Y' to accept and 'N' to reject the assignment. 'M' to view more details from the solver about the model. 
USER > n
SPCHK: If the rejection is due to part of the assignment, 
       press 'V' to select the bad variables, 
       press 'B' to select the bad vocabulary values, or
       press 'C' to continue.
USER > b
  + 0+ (<= xi xe) is true 
  + 1+ (= xi xe) is true 
  + 2+ (<= xi yi) is true 
  + 3+ (= xi yi) is true 
  + 4+ (<= xi ye) is true 
  + 5+ (= xi ye) is false 
  + 6+ (<= xe yi) is true 
  + 7+ (= xe yi) is true 
  + 8+ (<= xe ye) is true 
  + 9+ (= xe ye) is false 
  +10+ (<= ye yi) is false 
  +11+ (= yi ye) is false 
SPCHK: Type the ids of the vocab formulae that are the reason for rejecting the satisfying example.Type '-1'  to finish, '-2' to restart, and '-3' to exit bad vocab formulae option.
USER > 5
USER > 11
USER > -1
SPCHK: The reason for rejecting the model is the partial assignment 
0
+ 5+ (= xi ye) is false 
1
+11+ (= yi ye) is false 
SPCHK: please confirm by typing 'Y'. Restart by typing 'R'. Ignore and continue by typing any other key.
USER > u y
SPCHK: ignore bad partial assignment: [- - - - - 0 - - - - - 0 ]
SPCHK: Ignore: subtree satisfies an eliminated pattern.[1 1 1 1 1 0 1 1 0 1 - - ]
SPCHK: Ignore: subtree satisfies an eliminated pattern.[1 1 1 1 1 0 1 1 0 0 1 1 ]
SPCHK: Ignore: subtree satisfies an eliminated pattern.[1 1 1 1 1 0 1 1 0 0 1 0 ]
SPCHK: Ignore: subtree satisfies an eliminated pattern.[1 1 1 1 1 0 1 1 0 0 0 1 ]
SPCHK: Ignore: subtree satisfies an eliminated pattern.[1 1 1 1 1 0 1 1 0 0 0 0 ]
SPCHK: Ignore: subtree satisfies an eliminated pattern.[1 1 1 1 1 0 1 0 - - - - ]
SPCHK: Ignore: subtree satisfies an eliminated pattern.[1 1 1 1 1 0 0 1 - - - - ]
SPCHK: Ignore: subtree satisfies an eliminated pattern.[1 1 1 1 1 0 0 0 - - - - ]
SPCHK: checking choice...[1 1 1 1 0 1 1 1 1 1 1 1 ]
SPCHK: Calling SMT Solver. This may take time..
SPCHK: Adding unsat core to eliminated patterns...[- - - - - - - - - - - - ]
SPCHK: Adding unsat core to eliminated patterns...[- - - - 0 1 - - - - - - ]
SPCHK: choice is not satisfiable. 
SPCHK: Adding unsat core to eliminated patterns...[- - - - 0 1 - - - - - - ]
SPCHK: Adding unsat core to eliminated patterns...[- - - - 0 1 - - - - - - ]
SPCHK: Adding unsat core to eliminated patterns...[- - - - 0 1 - - - - - - ]
SPCHK: Ignore: subtree satisfies an eliminated pattern.[1 1 1 1 0 1 1 1 1 1 1 0 ]
SPCHK: Ignore: subtree satisfies an eliminated pattern.[1 1 1 1 0 1 1 1 1 1 0 - ]
SPCHK: Ignore: subtree satisfies an eliminated pattern.[1 1 1 1 0 1 1 1 1 0 - - ]
SPCHK: Ignore: subtree satisfies an eliminated pattern.[1 1 1 1 0 1 1 1 0 - - - ]
SPCHK: Ignore: subtree satisfies an eliminated pattern.[1 1 1 1 0 1 1 0 - - - - ]
SPCHK: Ignore: subtree satisfies an eliminated pattern.[1 1 1 1 0 1 0 - - - - - ]
SPCHK: Ignore: subtree satisfies an eliminated pattern.[1 1 1 1 0 0 1 1 1 1 - - ]
SPCHK: Ignore: subtree satisfies an eliminated pattern.[1 1 1 1 0 0 1 1 1 0 1 1 ]
SPCHK: Ignore: subtree satisfies an eliminated pattern.[1 1 1 1 0 0 1 1 1 0 1 0 ]
SPCHK: Ignore: subtree satisfies an eliminated pattern.[1 1 1 1 0 0 1 1 1 0 0 1 ]
SPCHK: Ignore: subtree satisfies an eliminated pattern.[1 1 1 1 0 0 1 1 1 0 0 0 ]
SPCHK: Ignore: subtree satisfies an eliminated pattern.[1 1 1 1 0 0 1 1 0 1 - - ]
SPCHK: Ignore: subtree satisfies an eliminated pattern.[1 1 1 1 0 0 1 1 0 0 1 1 ]
SPCHK: Ignore: subtree satisfies an eliminated pattern.[1 1 1 1 0 0 1 1 0 0 1 0 ]
SPCHK: Ignore: subtree satisfies an eliminated pattern.[1 1 1 1 0 0 1 1 0 0 0 1 ]
SPCHK: Ignore: subtree satisfies an eliminated pattern.[1 1 1 1 0 0 1 1 0 0 0 0 ]
SPCHK: Ignore: subtree satisfies an eliminated pattern.[1 1 1 1 0 0 1 0 - - - - ]
SPCHK: Ignore: subtree satisfies an eliminated pattern.[1 1 1 1 0 0 0 1 - - - - ]
SPCHK: Ignore: subtree satisfies an eliminated pattern.[1 1 1 1 0 0 0 0 - - - - ]
SPCHK: checking choice...[1 1 1 0 1 1 1 1 1 1 1 1 ]
SPCHK: Calling SMT Solver. This may take time..
SPCHK: Adding unsat core to eliminated patterns...[- - - - - - - - - - - - ]
SPCHK: Adding unsat core to eliminated patterns...[- 1 - 0 - - - 1 - - - - ]
SPCHK: choice is not satisfiable. 
SPCHK: Adding unsat core to eliminated patterns...[- 1 - 0 - - - 1 - - - - ]
SPCHK: Adding unsat core to eliminated patterns...[- 1 - 0 - - - 1 - - - - ]
SPCHK: Adding unsat core to eliminated patterns...[- 1 - 0 - - - 1 - - - - ]
SPCHK: Ignore: subtree satisfies an eliminated pattern.[1 1 1 0 1 1 1 1 1 1 1 0 ]
SPCHK: Ignore: subtree satisfies an eliminated pattern.[1 1 1 0 1 1 1 1 1 1 0 - ]
SPCHK: Ignore: subtree satisfies an eliminated pattern.[1 1 1 0 1 1 1 1 1 0 - - ]
SPCHK: Ignore: subtree satisfies an eliminated pattern.[1 1 1 0 1 1 1 1 0 - - - ]
SPCHK: checking choice...[1 1 1 0 1 1 1 0 1 1 1 1 ]
SPCHK: Calling SMT Solver. This may take time..
SPCHK: Adding unsat core to eliminated patterns...[- - - - - - - - - - - - ]
SPCHK: Adding unsat core to eliminated patterns...[- 1 - - - 1 - 0 - - - 1 ]
SPCHK: choice is not satisfiable. 
SPCHK: Adding unsat core to eliminated patterns...[- 1 - - - 1 - 0 - - - 1 ]
SPCHK: Adding unsat core to eliminated patterns...[- 1 - - - 1 - 0 - - - 1 ]
SPCHK: Adding unsat core to eliminated patterns...[- 1 - - - 1 - 0 - - - 1 ]
SPCHK: checking choice...[1 1 1 0 1 1 1 0 1 1 1 0 ]
SPCHK: Calling SMT Solver. This may take time..
SPCHK: Adding unsat core to eliminated patterns...[- - - - - - - - - - - - ]
SPCHK: Adding unsat core to eliminated patterns...[- - - - - - - - - - - - ]
SPCHK: choice is satisfiable. 
       Is the satisfying assignment below a good model for your property?
  xe = 0:int
  xi = 0:int
  ye = 0:int
  yi = 1:int
SPCHK: Answer by 'Y' to accept and 'N' to reject the assignment. 'M' to view more details from the solver about the model. 
USER > n
SPCHK: If the rejection is due to part of the assignment, 
       press 'V' to select the bad variables, 
       press 'B' to select the bad vocabulary values, or
       press 'C' to continue.
USER >   b
  + 0+ (<= xi xe) is true 
  + 1+ (= xi xe) is true 
  + 2+ (<= xi yi) is true 
  + 3+ (= xi yi) is false 
  + 4+ (<= xi ye) is true 
  + 5+ (= xi ye) is true 
  + 6+ (<= xe yi) is true 
  + 7+ (= xe yi) is false 
  + 8+ (<= xe ye) is true 
  + 9+ (= xe ye) is true 
  +10+ (<= ye yi) is true 
  +11+ (= yi ye) is false 
SPCHK: Type the ids of the vocab formulae that are the reason for rejecting the satisfying example.Type '-1'  to finish, '-2' to restart, and '-3' to exit bad vocab formulae option.
USER > 11
USER > 7
USER > -1
SPCHK: The reason for rejecting the model is the partial assignment 
0
+11+ (= yi ye) is false 
1
+ 7+ (= xe yi) is false 
SPCHK: please confirm by typing 'Y'. Restart by typing 'R'. Ignore and continue by typing any other key.
USER > y
SPCHK: ignore bad partial assignment: [- - - - - - - 0 - - - 0 ]
SPCHK: Ignore: subtree satisfies an eliminated pattern.[1 1 1 0 1 1 1 0 1 1 0 1 ]
SPCHK: Ignore: subtree satisfies an eliminated pattern.[1 1 1 0 1 1 1 0 1 1 0 0 ]
SPCHK: Ignore: subtree satisfies an eliminated pattern.[1 1 1 0 1 1 1 0 1 0 - - ]
SPCHK: Ignore: subtree satisfies an eliminated pattern.[1 1 1 0 1 1 1 0 0 1 - - ]
SPCHK: Ignore: subtree satisfies an eliminated pattern.[1 1 1 0 1 1 1 0 0 0 - - ]
SPCHK: Ignore: subtree satisfies an eliminated pattern.[1 1 1 0 1 1 0 1 - - - - ]
SPCHK: Ignore: subtree satisfies an eliminated pattern.[1 1 1 0 1 1 0 0 1 1 1 1 ]
SPCHK: Ignore: subtree satisfies an eliminated pattern.[1 1 1 0 1 1 0 0 1 1 1 0 ]
SPCHK: Ignore: subtree satisfies an eliminated pattern.[1 1 1 0 1 1 0 0 1 1 0 1 ]
SPCHK: Ignore: subtree satisfies an eliminated pattern.[1 1 1 0 1 1 0 0 1 1 0 0 ]
SPCHK: Ignore: subtree satisfies an eliminated pattern.[1 1 1 0 1 1 0 0 1 0 - - ]
SPCHK: Ignore: subtree satisfies an eliminated pattern.[1 1 1 0 1 1 0 0 0 1 - - ]
SPCHK: Ignore: subtree satisfies an eliminated pattern.[1 1 1 0 1 1 0 0 0 0 - - ]
SPCHK: Ignore: subtree satisfies an eliminated pattern.[1 1 1 0 1 0 1 1 - - - - ]
SPCHK: Ignore: subtree satisfies an eliminated pattern.[1 1 1 0 1 0 1 0 1 1 - - ]
SPCHK: checking choice...[1 1 1 0 1 0 1 0 1 0 1 1 ]
SPCHK: Calling SMT Solver. This may take time..
SPCHK: Adding unsat core to eliminated patterns...[- - - - - - - - - - - - ]
SPCHK: Adding unsat core to eliminated patterns...[- - - - - - - - - - - - ]
SPCHK: choice is satisfiable. 
       Is the satisfying assignment below a good model for your property?
  xe = 0:int
  xi = 0:int
  ye = 1:int
  yi = 1:int
SPCHK: Answer by 'Y' to accept and 'N' to reject the assignment. 'M' to view more details from the solver about the model. 
USER > y
SPCHK: Adding vocab choice to the specification.
yes choice being added [1 1 1 0 1 0 1 0 1 0 1 1 ]
debug 6
debug 6
debug 7
SPCHK: Ignore: subtree satisfies an eliminated pattern.[1 1 1 0 1 0 1 0 1 0 1 0 ]
SPCHK: Ignore: subtree satisfies an eliminated pattern.[1 1 1 0 1 0 1 0 1 0 0 1 ]
SPCHK: Ignore: subtree satisfies an eliminated pattern.[1 1 1 0 1 0 1 0 1 0 0 0 ]
SPCHK: Ignore: subtree satisfies an eliminated pattern.[1 1 1 0 1 0 1 0 0 1 - - ]
SPCHK: checking choice...[1 1 1 0 1 0 1 0 0 0 1 1 ]
SPCHK: Calling SMT Solver. This may take time..
SPCHK: Adding unsat core to eliminated patterns...[- - - - - - - - - - - - ]
SPCHK: Adding unsat core to eliminated patterns...[- 1 - - 1 - - - 0 - - - ]
SPCHK: choice is not satisfiable. 
SPCHK: Adding unsat core to eliminated patterns...[- 1 - - 1 - - - 0 - - - ]
SPCHK: Adding unsat core to eliminated patterns...[- 1 - - 1 - - - 0 - - - ]
SPCHK: Adding unsat core to eliminated patterns...[- 1 - - 1 - - - 0 - - - ]
SPCHK: Ignore: subtree satisfies an eliminated pattern.[1 1 1 0 1 0 1 0 0 0 1 0 ]
SPCHK: Ignore: subtree satisfies an eliminated pattern.[1 1 1 0 1 0 1 0 0 0 0 - ]
SPCHK: Ignore: subtree satisfies an eliminated pattern.[1 1 1 0 1 0 0 1 - - - - ]
SPCHK: Ignore: subtree satisfies an eliminated pattern.[1 1 1 0 1 0 0 0 1 1 - - ]
SPCHK: checking choice...[1 1 1 0 1 0 0 0 1 0 1 1 ]
SPCHK: Calling SMT Solver. This may take time..
SPCHK: Adding unsat core to eliminated patterns...[- - - - - - - - - - - - ]
SPCHK: Adding unsat core to eliminated patterns...[- 1 - - 1 - 0 - - - 1 - ]
SPCHK: choice is not satisfiable. 
SPCHK: Adding unsat core to eliminated patterns...[- 1 - - 1 - 0 - - - 1 - ]
SPCHK: Adding unsat core to eliminated patterns...[- 1 - - 1 - 0 - - - 1 - ]
SPCHK: Adding unsat core to eliminated patterns...[- 1 - - 1 - 0 - - - 1 - ]
SPCHK: Ignore: subtree satisfies an eliminated pattern.[1 1 1 0 1 0 0 0 1 0 1 0 ]
SPCHK: Ignore: subtree satisfies an eliminated pattern.[1 1 1 0 1 0 0 0 1 0 0 1 ]
SPCHK: Ignore: subtree satisfies an eliminated pattern.[1 1 1 0 1 0 0 0 1 0 0 0 ]
SPCHK: Ignore: subtree satisfies an eliminated pattern.[1 1 1 0 1 0 0 0 0 - - - ]
SPCHK: Ignore: subtree satisfies an eliminated pattern.[1 1 1 0 0 1 - - - - - - ]
SPCHK: Ignore: subtree satisfies an eliminated pattern.[1 1 1 0 0 0 1 1 - - - - ]
SPCHK: Ignore: subtree satisfies an eliminated pattern.[1 1 1 0 0 0 1 0 1 1 - - ]
SPCHK: checking choice...[1 1 1 0 0 0 1 0 1 0 1 1 ]
SPCHK: Calling SMT Solver. This may take time..
SPCHK: Adding unsat core to eliminated patterns...[- - - - - - - - - - - - ]
SPCHK: Adding unsat core to eliminated patterns...[- - 1 0 0 - - - - - - 1 ]
SPCHK: choice is not satisfiable. 
SPCHK: Adding unsat core to eliminated patterns...[- - 1 0 0 - - - - - - 1 ]
SPCHK: Adding unsat core to eliminated patterns...[- - 1 0 0 - - - - - - 1 ]
SPCHK: Adding unsat core to eliminated patterns...[- - 1 0 0 - - - - - - 1 ]
SPCHK: Ignore: subtree satisfies an eliminated pattern.[1 1 1 0 0 0 1 0 1 0 1 0 ]
SPCHK: Ignore: subtree satisfies an eliminated pattern.[1 1 1 0 0 0 1 0 1 0 0 1 ]
SPCHK: Ignore: subtree satisfies an eliminated pattern.[1 1 1 0 0 0 1 0 1 0 0 0 ]
SPCHK: Ignore: subtree satisfies an eliminated pattern.[1 1 1 0 0 0 1 0 0 1 - - ]
SPCHK: Ignore: subtree satisfies an eliminated pattern.[1 1 1 0 0 0 1 0 0 0 1 1 ]
SPCHK: Ignore: subtree satisfies an eliminated pattern.[1 1 1 0 0 0 1 0 0 0 1 0 ]
SPCHK: Ignore: subtree satisfies an eliminated pattern.[1 1 1 0 0 0 1 0 0 0 0 1 ]
SPCHK: Ignore: subtree satisfies an eliminated pattern.[1 1 1 0 0 0 1 0 0 0 0 0 ]
SPCHK: Ignore: subtree satisfies an eliminated pattern.[1 1 1 0 0 0 0 1 - - - - ]
SPCHK: Ignore: subtree satisfies an eliminated pattern.[1 1 1 0 0 0 0 0 1 1 - - ]
SPCHK: Ignore: subtree satisfies an eliminated pattern.[1 1 1 0 0 0 0 0 1 0 1 1 ]
SPCHK: Ignore: subtree satisfies an eliminated pattern.[1 1 1 0 0 0 0 0 1 0 1 0 ]
SPCHK: Ignore: subtree satisfies an eliminated pattern.[1 1 1 0 0 0 0 0 1 0 0 1 ]
SPCHK: Ignore: subtree satisfies an eliminated pattern.[1 1 1 0 0 0 0 0 1 0 0 0 ]
SPCHK: Ignore: subtree satisfies an eliminated pattern.[1 1 1 0 0 0 0 0 0 1 - - ]
SPCHK: Ignore: subtree satisfies an eliminated pattern.[1 1 1 0 0 0 0 0 0 0 1 1 ]
SPCHK: Ignore: subtree satisfies an eliminated pattern.[1 1 1 0 0 0 0 0 0 0 1 0 ]
SPCHK: Ignore: subtree satisfies an eliminated pattern.[1 1 1 0 0 0 0 0 0 0 0 1 ]
SPCHK: Ignore: subtree satisfies an eliminated pattern.[1 1 1 0 0 0 0 0 0 0 0 0 ]
SPCHK: checking choice...[1 1 0 1 1 1 1 1 1 1 1 1 ]
SPCHK: Calling SMT Solver. This may take time..
SPCHK: Adding unsat core to eliminated patterns...[- - - - - - - - - - - - ]
SPCHK: Adding unsat core to eliminated patterns...[- - 0 1 - - - - - - - - ]
SPCHK: choice is not satisfiable. 
SPCHK: Adding unsat core to eliminated patterns...[- - 0 1 - - - - - - - - ]
SPCHK: Adding unsat core to eliminated patterns...[- - 0 1 - - - - - - - - ]
SPCHK: Adding unsat core to eliminated patterns...[- - 0 1 - - - - - - - - ]
SPCHK: Ignore: subtree satisfies an eliminated pattern.[1 1 0 1 1 1 1 1 1 1 1 0 ]
SPCHK: Ignore: subtree satisfies an eliminated pattern.[1 1 0 1 1 1 1 1 1 1 0 - ]
SPCHK: Ignore: subtree satisfies an eliminated pattern.[1 1 0 1 1 1 1 1 1 0 - - ]
SPCHK: Ignore: subtree satisfies an eliminated pattern.[1 1 0 1 1 1 1 1 0 - - - ]
SPCHK: Ignore: subtree satisfies an eliminated pattern.[1 1 0 1 1 1 1 0 - - - - ]
SPCHK: Ignore: subtree satisfies an eliminated pattern.[1 1 0 1 1 1 0 - - - - - ]
SPCHK: Ignore: subtree satisfies an eliminated pattern.[1 1 0 1 1 0 - - - - - - ]
SPCHK: Ignore: subtree satisfies an eliminated pattern.[1 1 0 1 0 - - - - - - - ]
SPCHK: Ignore: subtree satisfies an eliminated pattern.[1 1 0 0 1 1 1 1 - - - - ]
SPCHK: Ignore: subtree satisfies an eliminated pattern.[1 1 0 0 1 1 1 0 1 1 1 1 ]
SPCHK: Ignore: subtree satisfies an eliminated pattern.[1 1 0 0 1 1 1 0 1 1 1 0 ]
SPCHK: Ignore: subtree satisfies an eliminated pattern.[1 1 0 0 1 1 1 0 1 1 0 1 ]
SPCHK: Ignore: subtree satisfies an eliminated pattern.[1 1 0 0 1 1 1 0 1 1 0 0 ]
SPCHK: Ignore: subtree satisfies an eliminated pattern.[1 1 0 0 1 1 1 0 1 0 - - ]
SPCHK: Ignore: subtree satisfies an eliminated pattern.[1 1 0 0 1 1 1 0 0 - - - ]
SPCHK: Ignore: subtree satisfies an eliminated pattern.[1 1 0 0 1 1 0 1 - - - - ]
SPCHK: Ignore: subtree satisfies an eliminated pattern.[1 1 0 0 1 1 0 0 1 1 1 - ]
SPCHK: Ignore: subtree satisfies an eliminated pattern.[1 1 0 0 1 1 0 0 1 1 0 1 ]
SPCHK: Ignore: subtree satisfies an eliminated pattern.[1 1 0 0 1 1 0 0 1 1 0 0 ]
SPCHK: Ignore: subtree satisfies an eliminated pattern.[1 1 0 0 1 1 0 0 1 0 - - ]
SPCHK: Ignore: subtree satisfies an eliminated pattern.[1 1 0 0 1 1 0 0 0 - - - ]
SPCHK: Ignore: subtree satisfies an eliminated pattern.[1 1 0 0 1 0 1 1 - - - - ]
SPCHK: Ignore: subtree satisfies an eliminated pattern.[1 1 0 0 1 0 1 0 1 1 - - ]
SPCHK: checking choice...[1 1 0 0 1 0 1 0 1 0 1 1 ]
SPCHK: Calling SMT Solver. This may take time..
SPCHK: Adding unsat core to eliminated patterns...[- - - - - - - - - - - - ]
SPCHK: Adding unsat core to eliminated patterns...[- - 0 - 1 - - - - - 1 - ]
SPCHK: choice is not satisfiable. 
SPCHK: Adding unsat core to eliminated patterns...[- - 0 - 1 - - - - - 1 - ]
SPCHK: Adding unsat core to eliminated patterns...[- - 0 - 1 - - - - - 1 - ]
SPCHK: Adding unsat core to eliminated patterns...[- - 0 - 1 - - - - - 1 - ]
SPCHK: Ignore: subtree satisfies an eliminated pattern.[1 1 0 0 1 0 1 0 1 0 1 0 ]
SPCHK: Ignore: subtree satisfies an eliminated pattern.[1 1 0 0 1 0 1 0 1 0 0 1 ]
SPCHK: Ignore: subtree satisfies an eliminated pattern.[1 1 0 0 1 0 1 0 1 0 0 0 ]
SPCHK: Ignore: subtree satisfies an eliminated pattern.[1 1 0 0 1 0 1 0 0 - - - ]
SPCHK: Ignore: subtree satisfies an eliminated pattern.[1 1 0 0 1 0 0 1 - - - - ]
SPCHK: Ignore: subtree satisfies an eliminated pattern.[1 1 0 0 1 0 0 0 1 1 - - ]
SPCHK: Ignore: subtree satisfies an eliminated pattern.[1 1 0 0 1 0 0 0 1 0 1 - ]
SPCHK: Ignore: subtree satisfies an eliminated pattern.[1 1 0 0 1 0 0 0 1 0 0 1 ]
SPCHK: Ignore: subtree satisfies an eliminated pattern.[1 1 0 0 1 0 0 0 1 0 0 0 ]
SPCHK: Ignore: subtree satisfies an eliminated pattern.[1 1 0 0 1 0 0 0 0 - - - ]
SPCHK: Ignore: subtree satisfies an eliminated pattern.[1 1 0 0 0 1 - - - - - - ]
SPCHK: Ignore: subtree satisfies an eliminated pattern.[1 1 0 0 0 0 1 1 - - - - ]
SPCHK: Ignore: subtree satisfies an eliminated pattern.[1 1 0 0 0 0 1 0 1 1 - - ]
SPCHK: checking choice...[1 1 0 0 0 0 1 0 1 0 1 1 ]
SPCHK: Calling SMT Solver. This may take time..
SPCHK: Adding unsat core to eliminated patterns...[- - - - - - - - - - - - ]
SPCHK: Adding unsat core to eliminated patterns...[1 - - - 0 - 1 0 - - - 1 ]
SPCHK: choice is not satisfiable. 
SPCHK: Adding unsat core to eliminated patterns...[1 - - - 0 - 1 0 - - - 1 ]
SPCHK: Adding unsat core to eliminated patterns...[1 - - - 0 - 1 0 - - - 1 ]
SPCHK: Adding unsat core to eliminated patterns...[1 - - - 0 - 1 0 - - - 1 ]
SPCHK: Ignore: subtree satisfies an eliminated pattern.[1 1 0 0 0 0 1 0 1 0 1 0 ]
SPCHK: Ignore: subtree satisfies an eliminated pattern.[1 1 0 0 0 0 1 0 1 0 0 1 ]
SPCHK: Ignore: subtree satisfies an eliminated pattern.[1 1 0 0 0 0 1 0 1 0 0 0 ]
SPCHK: Ignore: subtree satisfies an eliminated pattern.[1 1 0 0 0 0 1 0 0 1 - - ]
SPCHK: Ignore: subtree satisfies an eliminated pattern.[1 1 0 0 0 0 1 0 0 0 1 1 ]
SPCHK: Ignore: subtree satisfies an eliminated pattern.[1 1 0 0 0 0 1 0 0 0 1 0 ]
SPCHK: Ignore: subtree satisfies an eliminated pattern.[1 1 0 0 0 0 1 0 0 0 0 1 ]
SPCHK: Ignore: subtree satisfies an eliminated pattern.[1 1 0 0 0 0 1 0 0 0 0 0 ]
SPCHK: Ignore: subtree satisfies an eliminated pattern.[1 1 0 0 0 0 0 1 - - - - ]
SPCHK: Ignore: subtree satisfies an eliminated pattern.[1 1 0 0 0 0 0 0 1 1 - - ]
SPCHK: checking choice...[1 1 0 0 0 0 0 0 1 0 1 1 ]
SPCHK: Calling SMT Solver. This may take time..
SPCHK: Adding unsat core to eliminated patterns...[- - - - - - - - - - - - ]
SPCHK: Adding unsat core to eliminated patterns...[1 - - - 0 - - - 1 0 - - ]
SPCHK: choice is not satisfiable. 
SPCHK: Adding unsat core to eliminated patterns...[1 - - - 0 - - - 1 0 - - ]
SPCHK: Adding unsat core to eliminated patterns...[1 - - - 0 - - - 1 0 - - ]
SPCHK: Adding unsat core to eliminated patterns...[1 - - - 0 - - - 1 0 - - ]
SPCHK: Ignore: subtree satisfies an eliminated pattern.[1 1 0 0 0 0 0 0 1 0 1 0 ]
SPCHK: Ignore: subtree satisfies an eliminated pattern.[1 1 0 0 0 0 0 0 1 0 0 - ]
SPCHK: Ignore: subtree satisfies an eliminated pattern.[1 1 0 0 0 0 0 0 0 1 - - ]
SPCHK: checking choice...[1 1 0 0 0 0 0 0 0 0 1 1 ]
SPCHK: Calling SMT Solver. This may take time..
SPCHK: Adding unsat core to eliminated patterns...[- - - - - - - - - - - - ]
SPCHK: Adding unsat core to eliminated patterns...[- - - - - - - - - - - - ]
SPCHK: choice is satisfiable. 
       Is the satisfying assignment below a good model for your property?
  xe = 0:int
  xi = 0:int
  ye = -1:int
  yi = -1:int
SPCHK: Answer by 'Y' to accept and 'N' to reject the assignment. 'M' to view more details from the solver about the model. 
USER > n
SPCHK: If the rejection is due to part of the assignment, 
       press 'V' to select the bad variables, 
       press 'B' to select the bad vocabulary values, or
       press 'C' to continue.
USER > b
  + 0+ (<= xi xe) is true 
  + 1+ (= xi xe) is true 
  + 2+ (<= xi yi) is false 
  + 3+ (= xi yi) is false 
  + 4+ (<= xi ye) is false 
  + 5+ (= xi ye) is false 
  + 6+ (<= xe yi) is false 
  + 7+ (= xe yi) is false 
  + 8+ (<= xe ye) is false 
  + 9+ (= xe ye) is false 
  +10+ (<= ye yi) is true 
  +11+ (= yi ye) is true 
SPCHK: Type the ids of the vocab formulae that are the reason for rejecting the satisfying example.Type '-1'  to finish, '-2' to restart, and '-3' to exit bad vocab formulae option.
USER > 8
USER > -1
SPCHK: The reason for rejecting the model is the partial assignment 
0
+ 8+ (<= xe ye) is false 
SPCHK: please confirm by typing 'Y'. Restart by typing 'R'. Ignore and continue by typing any other key.
USER > y
SPCHK: ignore bad partial assignment: [- - - - - - - - 0 - - - ]
SPCHK: Ignore: subtree satisfies an eliminated pattern.[1 1 0 0 0 0 0 0 0 0 1 0 ]
SPCHK: Ignore: subtree satisfies an eliminated pattern.[1 1 0 0 0 0 0 0 0 0 0 - ]
SPCHK: checking choice...[1 0 1 1 1 1 1 1 1 1 1 1 ]
SPCHK: Calling SMT Solver. This may take time..
SPCHK: Adding unsat core to eliminated patterns...[- - - - - - - - - - - - ]
SPCHK: Adding unsat core to eliminated patterns...[- 0 - 1 - - - 1 - - - - ]
SPCHK: choice is not satisfiable. 
SPCHK: Adding unsat core to eliminated patterns...[- 0 - 1 - - - 1 - - - - ]
SPCHK: Adding unsat core to eliminated patterns...[- 0 - 1 - - - 1 - - - - ]
SPCHK: Adding unsat core to eliminated patterns...[- 0 - 1 - - - 1 - - - - ]
SPCHK: Ignore: subtree satisfies an eliminated pattern.[1 0 1 1 1 1 1 1 1 1 1 0 ]
SPCHK: Ignore: subtree satisfies an eliminated pattern.[1 0 1 1 1 1 1 1 1 1 0 - ]
SPCHK: Ignore: subtree satisfies an eliminated pattern.[1 0 1 1 1 1 1 1 1 0 - - ]
SPCHK: Ignore: subtree satisfies an eliminated pattern.[1 0 1 1 1 1 1 1 0 - - - ]
SPCHK: checking choice...[1 0 1 1 1 1 1 0 1 1 1 1 ]
SPCHK: Calling SMT Solver. This may take time..
SPCHK: Adding unsat core to eliminated patterns...[- - - - - - - - - - - - ]
SPCHK: Adding unsat core to eliminated patterns...[- - - 1 - 1 - 0 - 1 - - ]
SPCHK: choice is not satisfiable. 
SPCHK: Adding unsat core to eliminated patterns...[- - - 1 - 1 - 0 - 1 - - ]
SPCHK: Adding unsat core to eliminated patterns...[- - - 1 - 1 - 0 - 1 - - ]
SPCHK: Adding unsat core to eliminated patterns...[- - - 1 - 1 - 0 - 1 - - ]
SPCHK: Ignore: subtree satisfies an eliminated pattern.[1 0 1 1 1 1 1 0 1 1 1 0 ]
SPCHK: Ignore: subtree satisfies an eliminated pattern.[1 0 1 1 1 1 1 0 1 1 0 - ]
SPCHK: checking choice...[1 0 1 1 1 1 1 0 1 0 1 1 ]
SPCHK: Calling SMT Solver. This may take time..
SPCHK: Adding unsat core to eliminated patterns...[- - - - - - - - - - - - ]
SPCHK: Adding unsat core to eliminated patterns...[1 - - - - 1 1 0 - - - 1 ]
SPCHK: choice is not satisfiable. 
SPCHK: Adding unsat core to eliminated patterns...[1 - - - - 1 1 0 - - - 1 ]
SPCHK: Adding unsat core to eliminated patterns...[1 - - - - 1 1 0 - - - 1 ]
SPCHK: Adding unsat core to eliminated patterns...[1 - - - - 1 1 0 - - - 1 ]
SPCHK: Ignore: subtree satisfies an eliminated pattern.[1 0 1 1 1 1 1 0 1 0 1 0 ]
SPCHK: Ignore: subtree satisfies an eliminated pattern.[1 0 1 1 1 1 1 0 1 0 0 1 ]
SPCHK: Ignore: subtree satisfies an eliminated pattern.[1 0 1 1 1 1 1 0 1 0 0 0 ]
SPCHK: Ignore: subtree satisfies an eliminated pattern.[1 0 1 1 1 1 1 0 0 - - - ]
SPCHK: Ignore: subtree satisfies an eliminated pattern.[1 0 1 1 1 1 0 1 - - - - ]
SPCHK: Ignore: subtree satisfies an eliminated pattern.[1 0 1 1 1 1 0 0 1 1 - - ]
SPCHK: checking choice...[1 0 1 1 1 1 0 0 1 0 1 1 ]
SPCHK: Calling SMT Solver. This may take time..
SPCHK: Adding unsat core to eliminated patterns...[- - - - - - - - - - - - ]
SPCHK: Adding unsat core to eliminated patterns...[1 - - - - 1 - - 1 0 - - ]
SPCHK: choice is not satisfiable. 
SPCHK: Adding unsat core to eliminated patterns...[1 - - - - 1 - - 1 0 - - ]
SPCHK: Adding unsat core to eliminated patterns...[1 - - - - 1 - - 1 0 - - ]
SPCHK: Adding unsat core to eliminated patterns...[1 - - - - 1 - - 1 0 - - ]
SPCHK: Ignore: subtree satisfies an eliminated pattern.[1 0 1 1 1 1 0 0 1 0 1 0 ]
SPCHK: Ignore: subtree satisfies an eliminated pattern.[1 0 1 1 1 1 0 0 1 0 0 - ]
SPCHK: Ignore: subtree satisfies an eliminated pattern.[1 0 1 1 1 1 0 0 0 - - - ]
SPCHK: Ignore: subtree satisfies an eliminated pattern.[1 0 1 1 1 0 1 1 - - - - ]
SPCHK: checking choice...[1 0 1 1 1 0 1 0 1 1 1 1 ]
SPCHK: Calling SMT Solver. This may take time..
SPCHK: Adding unsat core to eliminated patterns...[- - - - - - - - - - - - ]
SPCHK: Adding unsat core to eliminated patterns...[- - - 1 - 0 - - - - - 1 ]
SPCHK: choice is not satisfiable. 
SPCHK: Adding unsat core to eliminated patterns...[- - - 1 - 0 - - - - - 1 ]
SPCHK: Adding unsat core to eliminated patterns...[- - - 1 - 0 - - - - - 1 ]
SPCHK: Adding unsat core to eliminated patterns...[- - - 1 - 0 - - - - - 1 ]
SPCHK: Ignore: subtree satisfies an eliminated pattern.[1 0 1 1 1 0 1 0 1 1 1 0 ]
SPCHK: Ignore: subtree satisfies an eliminated pattern.[1 0 1 1 1 0 1 0 1 1 0 1 ]
SPCHK: Ignore: subtree satisfies an eliminated pattern.[1 0 1 1 1 0 1 0 1 1 0 0 ]
SPCHK: Ignore: subtree satisfies an eliminated pattern.[1 0 1 1 1 0 1 0 1 0 1 1 ]
SPCHK: Ignore: subtree satisfies an eliminated pattern.[1 0 1 1 1 0 1 0 1 0 1 0 ]
SPCHK: Ignore: subtree satisfies an eliminated pattern.[1 0 1 1 1 0 1 0 1 0 0 1 ]
SPCHK: Ignore: subtree satisfies an eliminated pattern.[1 0 1 1 1 0 1 0 1 0 0 0 ]
SPCHK: Ignore: subtree satisfies an eliminated pattern.[1 0 1 1 1 0 1 0 0 - - - ]
SPCHK: Ignore: subtree satisfies an eliminated pattern.[1 0 1 1 1 0 0 1 - - - - ]
SPCHK: Ignore: subtree satisfies an eliminated pattern.[1 0 1 1 1 0 0 0 1 1 1 1 ]
SPCHK: Ignore: subtree satisfies an eliminated pattern.[1 0 1 1 1 0 0 0 1 1 1 0 ]
SPCHK: Ignore: subtree satisfies an eliminated pattern.[1 0 1 1 1 0 0 0 1 1 0 1 ]
SPCHK: Ignore: subtree satisfies an eliminated pattern.[1 0 1 1 1 0 0 0 1 1 0 0 ]
SPCHK: Ignore: subtree satisfies an eliminated pattern.[1 0 1 1 1 0 0 0 1 0 1 1 ]
SPCHK: Ignore: subtree satisfies an eliminated pattern.[1 0 1 1 1 0 0 0 1 0 1 0 ]
SPCHK: Ignore: subtree satisfies an eliminated pattern.[1 0 1 1 1 0 0 0 1 0 0 1 ]
SPCHK: Ignore: subtree satisfies an eliminated pattern.[1 0 1 1 1 0 0 0 1 0 0 0 ]
SPCHK: Ignore: subtree satisfies an eliminated pattern.[1 0 1 1 1 0 0 0 0 - - - ]
SPCHK: Ignore: subtree satisfies an eliminated pattern.[1 0 1 1 0 1 - - - - - - ]
SPCHK: Ignore: subtree satisfies an eliminated pattern.[1 0 1 1 0 0 1 1 - - - - ]
SPCHK: Ignore: subtree satisfies an eliminated pattern.[1 0 1 1 0 0 1 0 1 1 1 1 ]
SPCHK: Ignore: subtree satisfies an eliminated pattern.[1 0 1 1 0 0 1 0 1 1 1 0 ]
SPCHK: Ignore: subtree satisfies an eliminated pattern.[1 0 1 1 0 0 1 0 1 1 0 1 ]
SPCHK: Ignore: subtree satisfies an eliminated pattern.[1 0 1 1 0 0 1 0 1 1 0 0 ]
SPCHK: Ignore: subtree satisfies an eliminated pattern.[1 0 1 1 0 0 1 0 1 0 - - ]
SPCHK: Ignore: subtree satisfies an eliminated pattern.[1 0 1 1 0 0 1 0 0 - - - ]
SPCHK: Ignore: subtree satisfies an eliminated pattern.[1 0 1 1 0 0 0 1 - - - - ]
SPCHK: Ignore: subtree satisfies an eliminated pattern.[1 0 1 1 0 0 0 0 1 1 1 1 ]
SPCHK: Ignore: subtree satisfies an eliminated pattern.[1 0 1 1 0 0 0 0 1 1 1 0 ]
SPCHK: Ignore: subtree satisfies an eliminated pattern.[1 0 1 1 0 0 0 0 1 1 0 1 ]
SPCHK: Ignore: subtree satisfies an eliminated pattern.[1 0 1 1 0 0 0 0 1 1 0 0 ]
SPCHK: Ignore: subtree satisfies an eliminated pattern.[1 0 1 1 0 0 0 0 1 0 - - ]
SPCHK: Ignore: subtree satisfies an eliminated pattern.[1 0 1 1 0 0 0 0 0 - - - ]
SPCHK: checking choice...[1 0 1 0 1 1 1 1 1 1 1 1 ]
SPCHK: Calling SMT Solver. This may take time..
SPCHK: Adding unsat core to eliminated patterns...[- - - - - - - - - - - - ]
SPCHK: Adding unsat core to eliminated patterns...[- 0 - - - 1 - - - 1 - - ]
SPCHK: choice is not satisfiable. 
SPCHK: Adding unsat core to eliminated patterns...[- 0 - - - 1 - - - 1 - - ]
SPCHK: Adding unsat core to eliminated patterns...[- 0 - - - 1 - - - 1 - - ]
SPCHK: Adding unsat core to eliminated patterns...[- 0 - - - 1 - - - 1 - - ]
SPCHK: Ignore: subtree satisfies an eliminated pattern.[1 0 1 0 1 1 1 1 1 1 1 0 ]
SPCHK: Ignore: subtree satisfies an eliminated pattern.[1 0 1 0 1 1 1 1 1 1 0 - ]
SPCHK: Ignore: subtree satisfies an eliminated pattern.[1 0 1 0 1 1 1 1 1 0 - - ]
SPCHK: Ignore: subtree satisfies an eliminated pattern.[1 0 1 0 1 1 1 1 0 - - - ]
SPCHK: Ignore: subtree satisfies an eliminated pattern.[1 0 1 0 1 1 1 0 1 1 - - ]
SPCHK: Ignore: subtree satisfies an eliminated pattern.[1 0 1 0 1 1 1 0 1 0 - - ]
SPCHK: Ignore: subtree satisfies an eliminated pattern.[1 0 1 0 1 1 1 0 0 - - - ]
SPCHK: Ignore: subtree satisfies an eliminated pattern.[1 0 1 0 1 1 0 1 - - - - ]
SPCHK: Ignore: subtree satisfies an eliminated pattern.[1 0 1 0 1 1 0 0 1 1 - - ]
SPCHK: Ignore: subtree satisfies an eliminated pattern.[1 0 1 0 1 1 0 0 1 0 - - ]
SPCHK: Ignore: subtree satisfies an eliminated pattern.[1 0 1 0 1 1 0 0 0 - - - ]
SPCHK: checking choice...[1 0 1 0 1 0 1 1 1 1 1 1 ]
SPCHK: Calling SMT Solver. This may take time..
SPCHK: Adding unsat core to eliminated patterns...[- - - - - - - - - - - - ]
SPCHK: Adding unsat core to eliminated patterns...[- - - - - - - - - - - - ]
SPCHK: choice is satisfiable. 
       Is the satisfying assignment below a good model for your property?
  xe = 0:int
  xi = -1:int
  ye = 0:int
  yi = 0:int
SPCHK: Answer by 'Y' to accept and 'N' to reject the assignment. 'M' to view more details from the solver about the model. 
USER > n
SPCHK: If the rejection is due to part of the assignment, 
       press 'V' to select the bad variables, 
       press 'B' to select the bad vocabulary values, or
       press 'C' to continue.
USER > b
  + 0+ (<= xi xe) is true 
  + 1+ (= xi xe) is false 
  + 2+ (<= xi yi) is true 
  + 3+ (= xi yi) is false 
  + 4+ (<= xi ye) is true 
  + 5+ (= xi ye) is false 
  + 6+ (<= xe yi) is true 
  + 7+ (= xe yi) is true 
  + 8+ (<= xe ye) is true 
  + 9+ (= xe ye) is true 
  +10+ (<= ye yi) is true 
  +11+ (= yi ye) is true 
SPCHK: Type the ids of the vocab formulae that are the reason for rejecting the satisfying example.Type '-1'  to finish, '-2' to restart, and '-3' to exit bad vocab formulae option.
USER > 1
USER > 5
USER > -1
SPCHK: The reason for rejecting the model is the partial assignment 
0
+ 1+ (= xi xe) is false 
1
+ 5+ (= xi ye) is false 
SPCHK: please confirm by typing 'Y'. Restart by typing 'R'. Ignore and continue by typing any other key.
USER > y
SPCHK: ignore bad partial assignment: [- 0 - - - 0 - - - - - - ]
SPCHK: Ignore: subtree satisfies an eliminated pattern.[1 0 1 0 1 0 1 1 1 1 1 0 ]
SPCHK: Ignore: subtree satisfies an eliminated pattern.[1 0 1 0 1 0 1 1 1 1 0 - ]
SPCHK: Ignore: subtree satisfies an eliminated pattern.[1 0 1 0 1 0 1 1 1 0 - - ]
SPCHK: Ignore: subtree satisfies an eliminated pattern.[1 0 1 0 1 0 1 1 0 - - - ]
SPCHK: Ignore: subtree satisfies an eliminated pattern.[1 0 1 0 1 0 1 0 - - - - ]
SPCHK: Ignore: subtree satisfies an eliminated pattern.[1 0 1 0 1 0 0 - - - - - ]
SPCHK: Ignore: subtree satisfies an eliminated pattern.[1 0 1 0 0 1 - - - - - - ]
SPCHK: Ignore: subtree satisfies an eliminated pattern.[1 0 1 0 0 0 - - - - - - ]
SPCHK: Ignore: subtree satisfies an eliminated pattern.[1 0 0 1 - - - - - - - - ]
SPCHK: Ignore: subtree satisfies an eliminated pattern.[1 0 0 0 1 1 1 1 1 1 - - ]
SPCHK: Ignore: subtree satisfies an eliminated pattern.[1 0 0 0 1 1 1 1 1 0 - - ]
SPCHK: Ignore: subtree satisfies an eliminated pattern.[1 0 0 0 1 1 1 1 0 - - - ]
SPCHK: Ignore: subtree satisfies an eliminated pattern.[1 0 0 0 1 1 1 0 1 1 - - ]
SPCHK: Ignore: subtree satisfies an eliminated pattern.[1 0 0 0 1 1 1 0 1 0 - - ]
SPCHK: Ignore: subtree satisfies an eliminated pattern.[1 0 0 0 1 1 1 0 0 - - - ]
SPCHK: Ignore: subtree satisfies an eliminated pattern.[1 0 0 0 1 1 0 1 - - - - ]
SPCHK: Ignore: subtree satisfies an eliminated pattern.[1 0 0 0 1 1 0 0 1 1 - - ]
SPCHK: Ignore: subtree satisfies an eliminated pattern.[1 0 0 0 1 1 0 0 1 0 - - ]
SPCHK: Ignore: subtree satisfies an eliminated pattern.[1 0 0 0 1 1 0 0 0 - - - ]
SPCHK: Ignore: subtree satisfies an eliminated pattern.[1 0 0 0 1 0 - - - - - - ]
SPCHK: Ignore: subtree satisfies an eliminated pattern.[1 0 0 0 0 1 - - - - - - ]
SPCHK: Ignore: subtree satisfies an eliminated pattern.[1 0 0 0 0 0 - - - - - - ]
SPCHK: checking choice...[0 1 1 1 1 1 1 1 1 1 1 1 ]
SPCHK: Calling SMT Solver. This may take time..
SPCHK: Adding unsat core to eliminated patterns...[- - - - - - - - - - - - ]
SPCHK: Adding unsat core to eliminated patterns...[0 1 - - - - - - - - - - ]
SPCHK: choice is not satisfiable. 
SPCHK: Adding unsat core to eliminated patterns...[0 1 - - - - - - - - - - ]
SPCHK: Adding unsat core to eliminated patterns...[0 1 - - - - - - - - - - ]
SPCHK: Adding unsat core to eliminated patterns...[0 1 - - - - - - - - - - ]
SPCHK: Ignore: subtree satisfies an eliminated pattern.[0 1 1 1 1 1 1 1 1 1 1 0 ]
SPCHK: Ignore: subtree satisfies an eliminated pattern.[0 1 1 1 1 1 1 1 1 1 0 - ]
SPCHK: Ignore: subtree satisfies an eliminated pattern.[0 1 1 1 1 1 1 1 1 0 - - ]
SPCHK: Ignore: subtree satisfies an eliminated pattern.[0 1 1 1 1 1 1 1 0 - - - ]
SPCHK: Ignore: subtree satisfies an eliminated pattern.[0 1 1 1 1 1 1 0 - - - - ]
SPCHK: Ignore: subtree satisfies an eliminated pattern.[0 1 1 1 1 1 0 - - - - - ]
SPCHK: Ignore: subtree satisfies an eliminated pattern.[0 1 1 1 1 0 - - - - - - ]
SPCHK: Ignore: subtree satisfies an eliminated pattern.[0 1 1 1 0 - - - - - - - ]
SPCHK: Ignore: subtree satisfies an eliminated pattern.[0 1 1 0 - - - - - - - - ]
SPCHK: Ignore: subtree satisfies an eliminated pattern.[0 1 0 - - - - - - - - - ]
SPCHK: Ignore: subtree satisfies an eliminated pattern.[0 0 1 1 1 1 1 1 - - - - ]
SPCHK: Ignore: subtree satisfies an eliminated pattern.[0 0 1 1 1 1 1 0 1 1 - - ]
SPCHK: checking choice...[0 0 1 1 1 1 1 0 1 0 1 1 ]
SPCHK: Calling SMT Solver. This may take time..
SPCHK: Adding unsat core to eliminated patterns...[- - - - - - - - - - - - ]
SPCHK: Adding unsat core to eliminated patterns...[- - - - - - - - - - - - ]
SPCHK: choice is satisfiable. 
       Is the satisfying assignment below a good model for your property?
  xe = 0:int
  xi = 1:int
  ye = 1:int
  yi = 1:int
SPCHK: Answer by 'Y' to accept and 'N' to reject the assignment. 'M' to view more details from the solver about the model. 
USER > n
SPCHK: If the rejection is due to part of the assignment, 
       press 'V' to select the bad variables, 
       press 'B' to select the bad vocabulary values, or
       press 'C' to continue.
USER > b
  + 0+ (<= xi xe) is false 
  + 1+ (= xi xe) is false 
  + 2+ (<= xi yi) is true 
  + 3+ (= xi yi) is true 
  + 4+ (<= xi ye) is true 
  + 5+ (= xi ye) is true 
  + 6+ (<= xe yi) is true 
  + 7+ (= xe yi) is false 
  + 8+ (<= xe ye) is true 
  + 9+ (= xe ye) is false 
  +10+ (<= ye yi) is true 
  +11+ (= yi ye) is true 
SPCHK: Type the ids of the vocab formulae that are the reason for rejecting the satisfying example.Type '-1'  to finish, '-2' to restart, and '-3' to exit bad vocab formulae option.
USER > 1
USER > 7
USER > -1
SPCHK: The reason for rejecting the model is the partial assignment 
0
+ 1+ (= xi xe) is false 
1
+ 7+ (= xe yi) is false 
SPCHK: please confirm by typing 'Y'. Restart by typing 'R'. Ignore and continue by typing any other key.
USER > y
SPCHK: ignore bad partial assignment: [- 0 - - - - - 0 - - - - ]
SPCHK: Ignore: subtree satisfies an eliminated pattern.[0 0 1 1 1 1 1 0 1 0 1 0 ]
SPCHK: Ignore: subtree satisfies an eliminated pattern.[0 0 1 1 1 1 1 0 1 0 0 - ]
SPCHK: Ignore: subtree satisfies an eliminated pattern.[0 0 1 1 1 1 1 0 0 - - - ]
SPCHK: Ignore: subtree satisfies an eliminated pattern.[0 0 1 1 1 1 0 1 - - - - ]
SPCHK: Ignore: subtree satisfies an eliminated pattern.[0 0 1 1 1 1 0 0 - - - - ]
SPCHK: Ignore: subtree satisfies an eliminated pattern.[0 0 1 1 1 0 - - - - - - ]
SPCHK: Ignore: subtree satisfies an eliminated pattern.[0 0 1 1 0 1 - - - - - - ]
SPCHK: Ignore: subtree satisfies an eliminated pattern.[0 0 1 1 0 0 - - - - - - ]
SPCHK: Ignore: subtree satisfies an eliminated pattern.[0 0 1 0 1 1 1 1 1 1 - - ]
SPCHK: checking choice...[0 0 1 0 1 1 1 1 1 0 1 1 ]
SPCHK: Calling SMT Solver. This may take time..
SPCHK: Adding unsat core to eliminated patterns...[- - - - - - - - - - - - ]
SPCHK: Adding unsat core to eliminated patterns...[- - - 0 - 1 - - - - - 1 ]
SPCHK: choice is not satisfiable. 
SPCHK: Adding unsat core to eliminated patterns...[- - - 0 - 1 - - - - - 1 ]
SPCHK: Adding unsat core to eliminated patterns...[- - - 0 - 1 - - - - - 1 ]
SPCHK: Adding unsat core to eliminated patterns...[- - - 0 - 1 - - - - - 1 ]
SPCHK: checking choice...[0 0 1 0 1 1 1 1 1 0 1 0 ]
SPCHK: Calling SMT Solver. This may take time..
SPCHK: Adding unsat core to eliminated patterns...[- - - - - - - - - - - - ]
SPCHK: Adding unsat core to eliminated patterns...[0 - - - 1 - - 1 - - 1 - ]
SPCHK: choice is not satisfiable. 
SPCHK: Adding unsat core to eliminated patterns...[0 - - - 1 - - 1 - - 1 - ]
SPCHK: Adding unsat core to eliminated patterns...[0 - - - 1 - - 1 - - 1 - ]
SPCHK: Adding unsat core to eliminated patterns...[0 - - - 1 - - 1 - - 1 - ]
SPCHK: Ignore: subtree satisfies an eliminated pattern.[0 0 1 0 1 1 1 1 1 0 0 1 ]
SPCHK: checking choice...[0 0 1 0 1 1 1 1 1 0 0 0 ]
SPCHK: Calling SMT Solver. This may take time..
SPCHK: Adding unsat core to eliminated patterns...[- - - - - - - - - - - - ]
SPCHK: Adding unsat core to eliminated patterns...[- - 1 0 - 1 - - - - 0 - ]
SPCHK: choice is not satisfiable. 
SPCHK: Adding unsat core to eliminated patterns...[- - 1 0 - 1 - - - - 0 - ]
SPCHK: Adding unsat core to eliminated patterns...[- - 1 0 - 1 - - - - 0 - ]
SPCHK: Adding unsat core to eliminated patterns...[- - 1 0 - 1 - - - - 0 - ]
SPCHK: Ignore: subtree satisfies an eliminated pattern.[0 0 1 0 1 1 1 1 0 - - - ]
SPCHK: Ignore: subtree satisfies an eliminated pattern.[0 0 1 0 1 1 1 0 - - - - ]
SPCHK: Ignore: subtree satisfies an eliminated pattern.[0 0 1 0 1 1 0 1 - - - - ]
SPCHK: Ignore: subtree satisfies an eliminated pattern.[0 0 1 0 1 1 0 0 - - - - ]
SPCHK: Ignore: subtree satisfies an eliminated pattern.[0 0 1 0 1 0 - - - - - - ]
SPCHK: Ignore: subtree satisfies an eliminated pattern.[0 0 1 0 0 1 - - - - - - ]
SPCHK: Ignore: subtree satisfies an eliminated pattern.[0 0 1 0 0 0 - - - - - - ]
SPCHK: Ignore: subtree satisfies an eliminated pattern.[0 0 0 1 - - - - - - - - ]
SPCHK: Ignore: subtree satisfies an eliminated pattern.[0 0 0 0 1 1 1 1 1 1 - - ]
SPCHK: Ignore: subtree satisfies an eliminated pattern.[0 0 0 0 1 1 1 1 1 0 1 - ]
SPCHK: Ignore: subtree satisfies an eliminated pattern.[0 0 0 0 1 1 1 1 1 0 0 1 ]
SPCHK: checking choice...[0 0 0 0 1 1 1 1 1 0 0 0 ]
SPCHK: Calling SMT Solver. This may take time..
SPCHK: Adding unsat core to eliminated patterns...[- - - - - - - - - - - - ]
SPCHK: Adding unsat core to eliminated patterns...[- - - - - - - - - - - - ]
SPCHK: choice is satisfiable. 
       Is the satisfying assignment below a good model for your property?
  xe = 0:int
  xi = 1:int
  ye = 1:int
  yi = 0:int
SPCHK: Answer by 'Y' to accept and 'N' to reject the assignment. 'M' to view more details from the solver about the model. 
USER > y
SPCHK: Adding vocab choice to the specification.
yes choice being added [0 0 0 0 1 1 1 1 1 0 0 0 ]
debug 6
debug 6
debug 7
SPCHK: Ignore: subtree satisfies an eliminated pattern.[0 0 0 0 1 1 1 1 0 - - - ]
SPCHK: Ignore: subtree satisfies an eliminated pattern.[0 0 0 0 1 1 1 0 - - - - ]
SPCHK: Ignore: subtree satisfies an eliminated pattern.[0 0 0 0 1 1 0 1 - - - - ]
SPCHK: Ignore: subtree satisfies an eliminated pattern.[0 0 0 0 1 1 0 0 - - - - ]
SPCHK: Ignore: subtree satisfies an eliminated pattern.[0 0 0 0 1 0 - - - - - - ]
SPCHK: Ignore: subtree satisfies an eliminated pattern.[0 0 0 0 0 1 - - - - - - ]
SPCHK: Ignore: subtree satisfies an eliminated pattern.[0 0 0 0 0 0 - - - - - - ]
SPCHK: the formula is:
(or (or (or false
            (and (and (and (and (and (and (and (and (and (and (and (and true
                                                                        (<= xi
                                                                            xe))
                                                                   (= xi xe))
                                                              (<= xi yi))
                                                         (= xi yi))
                                                    (<= xi ye))
                                               (= xi ye))
                                          (<= xe yi))
                                     (= xe yi))
                                (<= xe ye))
                           (= xe ye))
                      (<= ye yi))
                 (= yi ye)))
        (and (and (and (and (and (and (and (and (and (and (and (and true
                                                                    (<= xi xe))
                                                               (= xi xe))
                                                          (<= xi yi))
                                                     (not (= xi yi)))
                                                (<= xi ye))
                                           (not (= xi ye)))
                                      (<= xe yi))
                                 (not (= xe yi)))
                            (<= xe ye))
                       (not (= xe ye)))
                  (<= ye yi))
             (= yi ye)))
    (and (and (and (and (and (and (and (and (and (and (and (and true
                                                                (not (<= xi xe)))
                                                           (not (= xi xe)))
                                                      (not (<= xi yi)))
                                                 (not (= xi yi)))
                                            (<= xi ye))
                                       (= xi ye))
                                  (<= xe yi))
                             (= xe yi))
                        (<= xe ye))
                   (not (= xe ye)))
              (not (<= ye yi)))
         (not (= yi ye))))

SPCHK: Timing and statistics report: 
       number of vocab clauses: 12
       number of variables: 4

       number of queries to user: 8
       number of vocab based partial assignments: 5
       number of variable based partial assignments: 0
       number of unsat cores: 34
       number of calls to sat solver (Z3): 37

       total traverse time (seconds): 373.915
       total sat time (micorseconds): 7291
       total match unsat core time (micorseconds): 1435
SPCHK: Calling logic minimization (Espresso) to simplify formula.
SPCHK: issuing command ./espresso/espresso -Dsimplify -oeqntott yes.7060.tt > yes.7060eqntott.simplified
SPCHK: issuing command ./espresso/espresso -Dsimplify -okiss yes.7060.tt > yes.7060kiss.simplified
SPCHK: output from espresso
# truth table from specification construction
Spec = (!v0&!v1&!v2&!v3&v4&v5&v6&v7&v8&!v9&!v10&!v11) | (v0&v1&v2&!v3&v4
    &!v5&v6&!v7&v8&!v9&v10&v11) | (v0&v1&v2&v3&v4&v5&v6&v7&v8&v9&v10&v11);

SPCHK: formula after esprersso simplify.
  Spec =  (!(xi <= xe)&!(xi = xe)&!(xi <= yi)&!(xi = yi)&(xi <= ye)&(xi = ye)&(xe <= yi)&(xe = yi)&(xe <= ye)&!(xe = ye)&!(ye <= yi)&!(yi = ye)) | ((xi <= xe)&(xi = xe)&(xi <= yi)&!(xi = yi)&
    &!(xi = ye)&(xe <= yi)&!(xe = yi)&(xe <= ye)&!(xe = ye)&(ye <= yi)&(yi = ye)) | ((xi <= xe)&(xi = xe)&(xi <= yi)&(xi = yi)&(xi <= ye)&(xi = ye)&(xe <= yi)&(xe = yi)&(xe <= ye)&(xe = ye)&(ye <= yi)&(yi = ye));



Formula 1Spec =  (!(xi <= xe)&!(xi = xe)&!(xi <= yi)&!(xi = yi)&(xi <= ye)&(xi = ye)&(xe <= yi)&(xe = yi)&(xe <= ye)&!(xe = ye)&!(ye <= yi)&!(yi = ye)) | ((xi <= xe)&(xi = xe)&(xi <= yi)&!(xi = yi)&
    &!(xi = ye)&(xe <= yi)&!(xe = yi)&(xe <= ye)&!(xe = ye)&(ye <= yi)&(yi = ye)) | ((xi <= xe)&(xi = xe)&(xi <= yi)&(xi = yi)&(xi <= ye)&(xi = ye)&(xe <= yi)&(xe = yi)&(xe <= ye)&(xe = ye)&(ye <= yi)&(yi = ye));



SPCHK: SMT formula after esprersso simplify.
  :formula (or 
   (and  (not (<= xi xe))  (not (= xi xe))  (not (<= xi yi))  (not (= xi yi)) (<= xi ye) (= xi ye) (<= xe yi) (= xe yi) (<= xe ye)  (not (= xe ye))  (not (<= ye yi))  (not (= yi ye)) ) 
   (and (<= xi xe) (= xi xe) (<= xi yi)  (not (= xi yi)) (<= xi ye)  (not (= xi ye)) (<= xe yi)  (not (= xe yi)) (<= xe ye)  (not (= xe ye)) (<= ye yi) (= yi ye) ) 
   (and (<= xi xe) (= xi xe) (<= xi yi) (= xi yi) (<= xi ye) (= xi ye) (<= xe yi) (= xe yi) (<= xe ye) (= xe ye) (<= ye yi) (= yi ye) ) 
   ) 
Formula 2:formula (or 
   (and  (not (<= xi xe))  (not (= xi xe))  (not (<= xi yi))  (not (= xi yi)) (<= xi ye) (= xi ye) (<= xe yi) (= xe yi) (<= xe ye)  (not (= xe ye))  (not (<= ye yi))  (not (= yi ye)) ) 
   (and (<= xi xe) (= xi xe) (<= xi yi)  (not (= xi yi)) (<= xi ye)  (not (= xi ye)) (<= xe yi)  (not (= xe yi)) (<= xe ye)  (not (= xe ye)) (<= ye yi) (= yi ye) ) 
   (and (<= xi xe) (= xi xe) (<= xi yi) (= xi yi) (<= xi ye) (= xi ye) (<= xe yi) (= xe yi) (<= xe ye) (= xe ye) (<= ye yi) (= yi ye) ) 
   ) 
SPCHK: using abc for simplification.
SPCHK: abc command is read_blif yes.7060.abc.blif
balance
renode
fx
strash
refactor
refactor
collapse
balance
collapse
write_eqn yes.7060.abc.simplify

ABC command line: "source -x abccmd".

abc - > read_blif yes.7060.abc.blif
abc - > balance
abc - > renode
abc - > fx
Warning: The network has not been changed by "fx".
abc - > strash
abc - > refactor
abc - > refactor
abc - > collapse
abc - > balance
abc - > collapse
abc - > write_eqn yes.7060.abc.simplify
SPCHK: simplified abc formula is: 

# Equations for "yes.7060" written by ABC on Sat Sep 12 04:28:11 2015
INORDER = v0 v1 v2 v3 v4 v5 v6 v7 v8 v9 v10 v11;
OUTORDER = Spec;
Spec = v4 * v6 * v8 * ((v0 * v1 * v2 * v10 * v11 * ((v5 * v7 * v3 * v9) + (!v5 * !v7 * !v3 * !v9))) + (!v0 * !v1 * !v2 * !v10 * !v11 * v5 * v7 * !v3 * !v9));

SPCHK: formula after esprersso simplify.
  INORDER = (xi <= xe) (xi = xe) (xi <= yi) (xi = yi) (xi <= ye) (xi = ye) (xe <= yi) (xe = yi) (xe <= ye) (xe = ye) (ye <= yi) (yi = ye);
OUTORDER = Spec;
Spec =  (xi <= ye) * (xe <= yi) * (xe <= ye) * (((xi <= xe) * (xi = xe) * (xi <= yi) * (ye <= yi) * (yi = ye) * (((xi = ye) * (xe = yi) * (xi = yi) * (xe = ye)) + (!(xi = ye) * !(xe = yi) * !(xi = yi) * !(xe = ye)))) + (!(xi <= xe) * !(xi = xe) * !(xi <= yi) * !(ye <= yi) * !(yi = ye) * (xi = ye) * (xe = yi) * !(xi = yi) * !(xe = ye)));




Script done on Sat 12 Sep 2015 04:28:11 EET
