Script started on 19 تموز, 2015 EEST 10:19:31 م
0x12b39a8 
0x12b63f0 
TheoryFiles/eina.ththeory  is ls
SPCHK: array declaration: declaring a size - 1 variable `a.size_minus_1' associated with the array.
SPCHK: warning: variable `a.size_minus_1' already declared. ignoring second declaration.
SPCHK: warning: value `0' already declared.
Parsing Complete
SPCHK: formula 0: (and (and (<= 0 left) (<= left right)) (<= right a.size_minus_1)).
SPCHK: formula 1: (and (<= left i) (<= i right)).
SPCHK: formula 2: (= e (select a i)).
Start QTMAin 
"loading file to GUI :TheoryFiles/eina.th" 
0x14c59a8 
0x14c83f0 
SPCHK: warning: variable `a.size_minus_1' already declared. ignoring second declaration.
SPCHK: warning: value `0' already declared.
"file set is : TheoryFiles/eina.th" 
0x160e038 
0x150c090 
theory  is ls
SPCHK: array declaration: declaring a size - 1 variable `a.size_minus_1' associated with the array.
SPCHK: warning: variable `a.size_minus_1' already declared. ignoring second declaration.
SPCHK: warning: value `0' already declared.
Parsing Complete
SPCHK: formula 0: (and (and (<= 0 left) (<= left right)) (<= right a.size_minus_1)).
SPCHK: formula 1: (and (<= left i) (<= i right)).
SPCHK: formula 2: (= e (select a i)).
reloading grammar
  (a,i,[])
  (left,a.size_minus_1,<=,=)
  (left,lit(0),=,>)
  (right,a.size_minus_1,<=,=)
  (right,left,<=,=)
  (right,lit(0),=,>)
  (e,a,=)
  (i,a.size_minus_1,<=,=)
  (i,left,<=,=)
  (i,right,<=,=)
  (i,lit(0),=,>)
  (a,i,[])
  (left,a.size_minus_1,<=,=)
  (left,lit(0),=,>)
  (right,a.size_minus_1,<=,=)
  (right,left,<=,=)
  (right,lit(0),=,>)
  (e,a,=)
  (i,a.size_minus_1,<=,=)
  (i,left,<=,=)
  (i,right,<=,=)
  (i,lit(0),=,>)
Reloading done
6:0
7:1
8:-1
placing vocab in GUI
reloading vocab 

debug 4 

debug 1 

debug loop  0 

debug post to infix on (and (and (<= 0 left) (<= left right)) (<= right a.size_minus_1))
(
a
n
d
 
(
a
n
d
 
(
<
=
 
0
 
l
e
f
t
)
 
(
<
=
 
l
e
f
t
 
r
i
g
h
t
)
)
 
(
<
=
 
r
i
g
h
t
 
a
.
s
i
z
e
_
m
i
n
u
s
_
1
)
)
"((((0 <= left) and (left <= right)) and (right <= a.size_minus_1)))" 

Popping out elementss...debug post to infix on (and (and (<= 0 left) (<= left right)) (<= right a.size_minus_1))
(
a
n
d
 
(
a
n
d
 
(
<
=
 
0
 
l
e
f
t
)
 
(
<
=
 
l
e
f
t
 
r
i
g
h
t
)
)
 
(
<
=
 
r
i
g
h
t
 
a
.
s
i
z
e
_
m
i
n
u
s
_
1
)
)
Popping out elementss...debug post to infix on (and (and (<= 0 left) (<= left right)) (<= right a.size_minus_1))
(
a
n
d
 
(
a
n
d
 
(
<
=
 
0
 
l
e
f
t
)
 
(
<
=
 
l
e
f
t
 
r
i
g
h
t
)
)
 
(
<
=
 
r
i
g
h
t
 
a
.
s
i
z
e
_
m
i
n
u
s
_
1
)
)
debug loop  1 

Popping out elementss...debug post to infix on (and (<= left i) (<= i right))
(
a
n
d
 
(
<
=
 
l
e
f
t
 
i
)
 
(
<
=
 
i
 
r
i
g
h
t
)
)
"(((left <= i) and (i <= right)))" 

Popping out elementss...debug post to infix on (and (<= left i) (<= i right))
(
a
n
d
 
(
<
=
 
l
e
f
t
 
i
)
 
(
<
=
 
i
 
r
i
g
h
t
)
)
Popping out elementss...debug post to infix on (and (<= left i) (<= i right))
(
a
n
d
 
(
<
=
 
l
e
f
t
 
i
)
 
(
<
=
 
i
 
r
i
g
h
t
)
)
debug loop  2 

Popping out elementss...debug post to infix on (= e (select a i))
(
=
 
e
 
(
s
e
l
e
c
t
 
a
 
i
)
)
"((e = a[i]))" 

Popping out elementss...debug post to infix on (= e (select a i))
(
=
 
e
 
(
s
e
l
e
c
t
 
a
 
i
)
)
Popping out elementss...debug post to infix on (= e (select a i))
(
=
 
e
 
(
s
e
l
e
c
t
 
a
 
i
)
)
Popping out elementss...vocab loading over
done placing vocab in GUI

^C
Script done on 19 تموز, 2015 EEST 10:20:01 م
