Script started on Fri 02 Oct 2015 08:37:53 EET
0x1c219a8 
0x1c243f0 
TheoryFiles/eina.ththeory  is ls
SPCHK: array declaration: declaring a size - 1 variable `a.size_minus_1' associated with the array.
SPCHK: warning: variable `a.size_minus_1' already declared. ignoring second declaration.
SPCHK: warning: value `0' already declared.
Parsing Complete
SPCHK: formula 0: (and (and (<= 0 left) (<= left right)) (<= right a.size_minus_1)).
SPCHK: formula 1: (and (<= left i) (<= i right)).
SPCHK: formula 2: (= e (select a i)).
Start QTMAin 
"loading file to GUI :TheoryFiles/eina.th" 
0x9669a8 
0x9693f0 
SPCHK: warning: variable `a.size_minus_1' already declared. ignoring second declaration.
SPCHK: warning: value `0' already declared.
"file set is : TheoryFiles/eina.th" 
0x1e3b478 
0x20fb580 
theory  is ls
SPCHK: array declaration: declaring a size - 1 variable `a.size_minus_1' associated with the array.
SPCHK: warning: variable `a.size_minus_1' already declared. ignoring second declaration.
SPCHK: warning: value `0' already declared.
Parsing Complete
SPCHK: formula 0: (and (and (<= 0 left) (<= left right)) (<= right a.size_minus_1)).
SPCHK: formula 1: (and (<= left i) (<= i right)).
SPCHK: formula 2: (= e (select a i)).
reloading grammar
  (a,i,[])
  (left,a.size_minus_1,<=,=)
  (right,a.size_minus_1,<=,=)
  (right,left,<=,=)
  (e,a,=)
  (i,a.size_minus_1,<=,=)
  (i,left,<=,=)
  (i,right,<=,=)
  (a,i,[])
  (left,a.size_minus_1,<=,=)
  (right,a.size_minus_1,<=,=)
  (right,left,<=,=)
  (e,a,=)
  (i,a.size_minus_1,<=,=)
  (i,left,<=,=)
  (i,right,<=,=)
Reloading done
6:0
7:1
8:-1
placing vocab in GUI
reloading vocab 

debug 4 

debug 1 

debug loop  0 

debug post to infix on (and (and (<= 0 left) (<= left right)) (<= right a.size_minus_1))
"((((0 <= left) and (left <= right)) and (right <= a.size_minus_1)))" 

Popping out elementss...debug post to infix on (and (and (<= 0 left) (<= left right)) (<= right a.size_minus_1))
Popping out elementss...debug post to infix on (and (and (<= 0 left) (<= left right)) (<= right a.size_minus_1))
debug loop  1 

Popping out elementss...debug post to infix on (and (<= left i) (<= i right))
"(((left <= i) and (i <= right)))" 

Popping out elementss...debug post to infix on (and (<= left i) (<= i right))
Popping out elementss...debug post to infix on (and (<= left i) (<= i right))
debug loop  2 

Popping out elementss...debug post to infix on (= e (select a i))
"((e = a[i]))" 

Popping out elementss...debug post to infix on (= e (select a i))
Popping out elementss...debug post to infix on (= e (select a i))
Popping out elementss...vocab loading over
done placing vocab in GUI

Script done on Fri 02 Oct 2015 08:37:59 EET
